<?xml version="1.0" encoding="UTF-8"?>
<!-- Created with Inkscape (http://www.inkscape.org/) -->
<svg width="68.669mm" height="68.669mm" version="1.1" viewBox="0 0 68.669 68.669" xmlns="http://www.w3.org/2000/svg" xmlns:cc="http://creativecommons.org/ns#" xmlns:dc="http://purl.org/dc/elements/1.1/" xmlns:rdf="http://www.w3.org/1999/02/22-rdf-syntax-ns#">
 <metadata>
  <rdf:RDF>
   <cc:Work rdf:about="">
    <dc:format>image/svg+xml</dc:format>
    <dc:type rdf:resource="http://purl.org/dc/dcmitype/StillImage"/>
    <dc:title/>
   </cc:Work>
  </rdf:RDF>
 </metadata>
 <g transform="translate(-70.804 -227.35)">
  <path d="m74.537 227.35c-2.0675 0-3.7321 1.6646-3.7321 3.7321v61.205c0 2.0675 1.6646 3.7321 3.7321 3.7321h61.205c2.0675 0 3.7321-1.6646 3.7321-3.7321v-61.205c0-2.0675-1.6646-3.7321-3.7321-3.7321zm13.152 15.867h13.395c3.0096 0 5.6059 0.25632 7.7887 0.76895 2.1828 0.49609 4.0184 1.2072 5.5066 2.1332 2.5466 1.5544 4.5475 3.6546 6.0027 6.3004 1.4717 2.6293 2.2076 5.7299 2.2076 9.3018 0 3.4396-0.78548 6.5236-2.3564 9.2522-1.571 2.712-3.5553 4.7956-5.9531 6.2508-1.8025 1.0914-3.7786 1.8521-5.9283 2.282s-4.6964 0.64492-7.6398 0.64492h-13.022zm9.525 6.8957v23.118h2.4061c2.2655 0 3.9274-0.0992 4.9857-0.29765 1.0583-0.21498 2.0919-0.59532 3.1006-1.141 1.7363-0.99219 3.0096-2.3151 3.8199-3.9688 0.81028-1.6702 1.2154-3.729 1.2154-6.1764 0-2.4309-0.44649-4.5062-1.3394-6.226-0.87644-1.7363-2.2738-3.0923-4.192-4.068-0.97565-0.47956-1.9761-0.80202-3.0014-0.96738-1.0087-0.1819-2.5384-0.27285-4.5889-0.27285z" fill="#f60"/>
 </g>
</svg>
