<?xml version="1.0" encoding="UTF-8"?>
<!-- Created with Inkscape (http://www.inkscape.org/) -->
<svg width="90.5mm" height="185.5mm" version="1.1" viewBox="0 0 90.5 185.5" xmlns="http://www.w3.org/2000/svg" xmlns:cc="http://creativecommons.org/ns#" xmlns:dc="http://purl.org/dc/elements/1.1/" xmlns:rdf="http://www.w3.org/1999/02/22-rdf-syntax-ns#" xmlns:xlink="http://www.w3.org/1999/xlink">
 <metadata>
  <rdf:RDF>
   <cc:Work rdf:about="">
    <dc:format>image/svg+xml</dc:format>
    <dc:type rdf:resource="http://purl.org/dc/dcmitype/StillImage"/>
    <dc:title/>
   </cc:Work>
  </rdf:RDF>
 </metadata>
 <g transform="translate(-58.094 -61.62)">
  <g transform="rotate(90 106.79 157.82)">
   <g transform="translate(5 -5)">
    <g id="g1110" transform="translate(-1.2777 5.7731)">
     <rect x="9.6222" y="115.49" width="18" height="90" fill="#38b000"/>
     <rect x="27.622" y="115.49" width="18" height="90" fill="#70e000"/>
    </g>
    <use transform="translate(36)" width="100%" height="100%" xlink:href="#g1110"/>
    <use transform="translate(72)" width="100%" height="100%" xlink:href="#g1110"/>
    <use transform="translate(108)" width="100%" height="100%" xlink:href="#g1110"/>
    <use transform="translate(144)" width="100%" height="100%" xlink:href="#g1110"/>
   </g>
   <g fill="none" stroke="#fff">
    <g stroke-width="1.8898">
     <path transform="scale(.26458)" d="m56.104 779.59a5.6693 5.6693 0 0 0 0-2e-3 5.6693 5.6693 0 0 0-0.01367-0.40039 5.6693 5.6693 0 0 0-0.06836-0.5625 5.6693 5.6693 0 0 0-0.125-0.55273 5.6693 5.6693 0 0 0-0.17773-0.53907 5.6693 5.6693 0 0 0-0.23242-0.51758 5.6693 5.6693 0 0 0-0.28125-0.49023 5.6693 5.6693 0 0 0-0.33008-0.46094 5.6693 5.6693 0 0 0-0.375-0.42578 5.6693 5.6693 0 0 0-0.41406-0.38672 5.6693 5.6693 0 0 0-0.45117-0.34375 5.6693 5.6693 0 0 0-0.48242-0.29492 5.6693 5.6693 0 0 0-0.50977-0.24609 5.6693 5.6693 0 0 0-0.5332-0.19531 5.6693 5.6693 0 0 0-0.54883-0.14063 5.6693 5.6693 0 0 0-0.56055-0.084 5.6693 5.6693 0 0 0-0.56445-0.0293v5.6719z"/>
     <path transform="scale(.26458)" d="m50.436 445.1v328.82a5.6693 5.6693 0 0 1 0.56445 0.0293 5.6693 5.6693 0 0 1 0.56055 0.084 5.6693 5.6693 0 0 1 0.54883 0.14063 5.6693 5.6693 0 0 1 0.5332 0.19531 5.6693 5.6693 0 0 1 0.50977 0.24609 5.6693 5.6693 0 0 1 0.48242 0.29492 5.6693 5.6693 0 0 1 0.45117 0.34375 5.6693 5.6693 0 0 1 0.41406 0.38672 5.6693 5.6693 0 0 1 0.375 0.42578 5.6693 5.6693 0 0 1 0.33008 0.46094 5.6693 5.6693 0 0 1 0.28125 0.49023 5.6693 5.6693 0 0 1 0.23242 0.51758 5.6693 5.6693 0 0 1 0.17773 0.53907 5.6693 5.6693 0 0 1 0.125 0.55273 5.6693 5.6693 0 0 1 0.06836 0.5625 5.6693 5.6693 0 0 1 0.01367 0.40039 5.6693 5.6693 0 0 1 0 2e-3h334.49v-340.16h-334.49a5.6693 5.6693 0 0 1-0.0293 0.56445 5.6693 5.6693 0 0 1-0.08398 0.56055 5.6693 5.6693 0 0 1-0.14062 0.54883 5.6693 5.6693 0 0 1-0.19336 0.5332 5.6693 5.6693 0 0 1-0.24609 0.50977 5.6693 5.6693 0 0 1-0.29688 0.48242 5.6693 5.6693 0 0 1-0.34375 0.45117 5.6693 5.6693 0 0 1-0.38476 0.41602 5.6693 5.6693 0 0 1-0.42578 0.37304 5.6693 5.6693 0 0 1-0.46094 0.33008 5.6693 5.6693 0 0 1-0.49219 0.28125 5.6693 5.6693 0 0 1-0.51758 0.23242 5.6693 5.6693 0 0 1-0.53711 0.17774 5.6693 5.6693 0 0 1-0.55273 0.125 5.6693 5.6693 0 0 1-0.5625 0.0684 5.6693 5.6693 0 0 1-0.40039 0.0137z"/>
     <path transform="scale(.26458)" d="m50.436 445.1a5.6693 5.6693 0 0 0 0.40039-0.0137 5.6693 5.6693 0 0 0 0.5625-0.0684 5.6693 5.6693 0 0 0 0.55273-0.125 5.6693 5.6693 0 0 0 0.53711-0.17774 5.6693 5.6693 0 0 0 0.51758-0.23242 5.6693 5.6693 0 0 0 0.49219-0.28125 5.6693 5.6693 0 0 0 0.46094-0.33008 5.6693 5.6693 0 0 0 0.42578-0.37304 5.6693 5.6693 0 0 0 0.38476-0.41602 5.6693 5.6693 0 0 0 0.34375-0.45117 5.6693 5.6693 0 0 0 0.29688-0.48242 5.6693 5.6693 0 0 0 0.24609-0.50977 5.6693 5.6693 0 0 0 0.19336-0.5332 5.6693 5.6693 0 0 0 0.14062-0.54883 5.6693 5.6693 0 0 0 0.08398-0.56055 5.6693 5.6693 0 0 0 0.0293-0.56445h-5.668z"/>
    </g>
    <rect x="13.344" y="141.35" width="24.576" height="39.826" stroke-width=".5"/>
    <rect x="13.344" y="152.2" width="8.0569" height="18.127" stroke-width=".5"/>
   </g>
   <circle cx="30.094" cy="161.77" r=".5" fill="#fff"/>
   <path transform="scale(.26458)" d="m143.32 569.88v83.021a51.024 51.024 0 0 0 21.443-41.496 51.024 51.024 0 0 0-21.443-41.525z" fill="none" stroke="#fff" stroke-width="1.8898"/>
   <rect x="10.808" y="157.48" width="2.571" height="7.571" fill="none" stroke="#fff" stroke-width=".42896"/>
   <circle cx="103.34" cy="161.27" r="13.5" fill="none" stroke="#fff" stroke-width=".5"/>
   <circle cx="103.34" cy="161.27" r=".75" fill="#fff"/>
   <g transform="matrix(-1 0 0 1 206.69 -1.8521e-5)">
    <g fill="none" stroke="#fff">
     <g stroke-width="1.8898">
      <path transform="scale(.26458)" d="m56.104 779.59a5.6693 5.6693 0 0 0 0-2e-3 5.6693 5.6693 0 0 0-0.01367-0.40039 5.6693 5.6693 0 0 0-0.06836-0.5625 5.6693 5.6693 0 0 0-0.125-0.55273 5.6693 5.6693 0 0 0-0.17773-0.53907 5.6693 5.6693 0 0 0-0.23242-0.51758 5.6693 5.6693 0 0 0-0.28125-0.49023 5.6693 5.6693 0 0 0-0.33008-0.46094 5.6693 5.6693 0 0 0-0.375-0.42578 5.6693 5.6693 0 0 0-0.41406-0.38672 5.6693 5.6693 0 0 0-0.45117-0.34375 5.6693 5.6693 0 0 0-0.48242-0.29492 5.6693 5.6693 0 0 0-0.50977-0.24609 5.6693 5.6693 0 0 0-0.5332-0.19531 5.6693 5.6693 0 0 0-0.54883-0.14063 5.6693 5.6693 0 0 0-0.56055-0.084 5.6693 5.6693 0 0 0-0.56445-0.0293v5.6719z"/>
      <path transform="scale(.26458)" d="m50.436 445.1v328.82a5.6693 5.6693 0 0 1 0.56445 0.0293 5.6693 5.6693 0 0 1 0.56055 0.084 5.6693 5.6693 0 0 1 0.54883 0.14063 5.6693 5.6693 0 0 1 0.5332 0.19531 5.6693 5.6693 0 0 1 0.50977 0.24609 5.6693 5.6693 0 0 1 0.48242 0.29492 5.6693 5.6693 0 0 1 0.45117 0.34375 5.6693 5.6693 0 0 1 0.41406 0.38672 5.6693 5.6693 0 0 1 0.375 0.42578 5.6693 5.6693 0 0 1 0.33008 0.46094 5.6693 5.6693 0 0 1 0.28125 0.49023 5.6693 5.6693 0 0 1 0.23242 0.51758 5.6693 5.6693 0 0 1 0.17773 0.53907 5.6693 5.6693 0 0 1 0.125 0.55273 5.6693 5.6693 0 0 1 0.06836 0.5625 5.6693 5.6693 0 0 1 0.01367 0.40039 5.6693 5.6693 0 0 1 0 2e-3h334.49v-340.16h-334.49a5.6693 5.6693 0 0 1-0.0293 0.56445 5.6693 5.6693 0 0 1-0.08398 0.56055 5.6693 5.6693 0 0 1-0.14062 0.54883 5.6693 5.6693 0 0 1-0.19336 0.5332 5.6693 5.6693 0 0 1-0.24609 0.50977 5.6693 5.6693 0 0 1-0.29688 0.48242 5.6693 5.6693 0 0 1-0.34375 0.45117 5.6693 5.6693 0 0 1-0.38476 0.41602 5.6693 5.6693 0 0 1-0.42578 0.37304 5.6693 5.6693 0 0 1-0.46094 0.33008 5.6693 5.6693 0 0 1-0.49219 0.28125 5.6693 5.6693 0 0 1-0.51758 0.23242 5.6693 5.6693 0 0 1-0.53711 0.17774 5.6693 5.6693 0 0 1-0.55273 0.125 5.6693 5.6693 0 0 1-0.5625 0.0684 5.6693 5.6693 0 0 1-0.40039 0.0137z"/>
      <path transform="scale(.26458)" d="m50.436 445.1a5.6693 5.6693 0 0 0 0.40039-0.0137 5.6693 5.6693 0 0 0 0.5625-0.0684 5.6693 5.6693 0 0 0 0.55273-0.125 5.6693 5.6693 0 0 0 0.53711-0.17774 5.6693 5.6693 0 0 0 0.51758-0.23242 5.6693 5.6693 0 0 0 0.49219-0.28125 5.6693 5.6693 0 0 0 0.46094-0.33008 5.6693 5.6693 0 0 0 0.42578-0.37304 5.6693 5.6693 0 0 0 0.38476-0.41602 5.6693 5.6693 0 0 0 0.34375-0.45117 5.6693 5.6693 0 0 0 0.29688-0.48242 5.6693 5.6693 0 0 0 0.24609-0.50977 5.6693 5.6693 0 0 0 0.19336-0.5332 5.6693 5.6693 0 0 0 0.14062-0.54883 5.6693 5.6693 0 0 0 0.08398-0.56055 5.6693 5.6693 0 0 0 0.0293-0.56445h-5.668z"/>
     </g>
     <rect x="13.344" y="141.35" width="24.576" height="39.826" stroke-width=".5"/>
     <rect x="13.344" y="152.2" width="8.0569" height="18.127" stroke-width=".5"/>
    </g>
    <circle cx="30.094" cy="161.77" r=".5" fill="#fff"/>
    <path transform="scale(.26458)" d="m143.32 569.88v83.021a51.024 51.024 0 0 0 21.443-41.496 51.024 51.024 0 0 0-21.443-41.525z" fill="none" stroke="#fff" stroke-width="1.8898"/>
   </g>
   <rect x="193.31" y="157.48" width="2.571" height="7.571" fill="none" stroke="#fff" stroke-width=".42896"/>
  </g>
 </g>
</svg>
